<?xml version="1.0" encoding="utf-8"?>
<!DOCTYPE eagle SYSTEM "eagle.dtd">
<eagle version="7.2.0">
<drawing>
<settings>
<setting alwaysvectorfont="yes"/>
<setting verticaltext="up"/>
</settings>
<grid distance="0.1" unitdist="inch" unit="inch" style="lines" multiple="1" display="no" altdistance="0.01" altunitdist="inch" altunit="inch"/>
<layers>
<layer number="1" name="Top" color="4" fill="1" visible="no" active="no"/>
<layer number="16" name="Bottom" color="1" fill="1" visible="no" active="no"/>
<layer number="17" name="Pads" color="2" fill="1" visible="no" active="no"/>
<layer number="18" name="Vias" color="2" fill="1" visible="no" active="no"/>
<layer number="19" name="Unrouted" color="6" fill="1" visible="no" active="no"/>
<layer number="20" name="Dimension" color="15" fill="1" visible="no" active="no"/>
<layer number="21" name="tPlace" color="14" fill="1" visible="no" active="no"/>
<layer number="22" name="bPlace" color="7" fill="1" visible="no" active="no"/>
<layer number="23" name="tOrigins" color="15" fill="1" visible="no" active="no"/>
<layer number="24" name="bOrigins" color="15" fill="1" visible="no" active="no"/>
<layer number="25" name="tNames" color="7" fill="1" visible="no" active="no"/>
<layer number="26" name="bNames" color="7" fill="1" visible="no" active="no"/>
<layer number="27" name="tValues" color="7" fill="1" visible="no" active="no"/>
<layer number="28" name="bValues" color="7" fill="1" visible="no" active="no"/>
<layer number="29" name="tStop" color="7" fill="3" visible="no" active="no"/>
<layer number="30" name="bStop" color="7" fill="6" visible="no" active="no"/>
<layer number="31" name="tCream" color="7" fill="4" visible="no" active="no"/>
<layer number="32" name="bCream" color="7" fill="5" visible="no" active="no"/>
<layer number="33" name="tFinish" color="6" fill="3" visible="no" active="no"/>
<layer number="34" name="bFinish" color="6" fill="6" visible="no" active="no"/>
<layer number="35" name="tGlue" color="7" fill="4" visible="no" active="no"/>
<layer number="36" name="bGlue" color="7" fill="5" visible="no" active="no"/>
<layer number="37" name="tTest" color="7" fill="1" visible="no" active="no"/>
<layer number="38" name="bTest" color="7" fill="1" visible="no" active="no"/>
<layer number="39" name="tKeepout" color="4" fill="11" visible="no" active="no"/>
<layer number="40" name="bKeepout" color="1" fill="11" visible="no" active="no"/>
<layer number="41" name="tRestrict" color="4" fill="10" visible="no" active="no"/>
<layer number="42" name="bRestrict" color="1" fill="10" visible="no" active="no"/>
<layer number="43" name="vRestrict" color="2" fill="10" visible="no" active="no"/>
<layer number="44" name="Drills" color="7" fill="1" visible="no" active="no"/>
<layer number="45" name="Holes" color="7" fill="1" visible="no" active="no"/>
<layer number="46" name="Milling" color="3" fill="1" visible="no" active="no"/>
<layer number="47" name="Measures" color="7" fill="1" visible="no" active="no"/>
<layer number="48" name="Document" color="7" fill="1" visible="no" active="no"/>
<layer number="49" name="Reference" color="7" fill="1" visible="no" active="no"/>
<layer number="50" name="dxf" color="7" fill="1" visible="no" active="no"/>
<layer number="51" name="tDocu" color="15" fill="1" visible="no" active="no"/>
<layer number="52" name="bDocu" color="7" fill="1" visible="no" active="no"/>
<layer number="53" name="tGND_GNDA" color="7" fill="9" visible="no" active="no"/>
<layer number="54" name="bGND_GNDA" color="1" fill="9" visible="no" active="no"/>
<layer number="56" name="wert" color="7" fill="1" visible="no" active="no"/>
<layer number="90" name="Modules" color="5" fill="1" visible="yes" active="yes"/>
<layer number="91" name="Nets" color="2" fill="1" visible="yes" active="yes"/>
<layer number="92" name="Busses" color="1" fill="1" visible="yes" active="yes"/>
<layer number="93" name="Pins" color="2" fill="1" visible="no" active="yes"/>
<layer number="94" name="Symbols" color="4" fill="1" visible="yes" active="yes"/>
<layer number="95" name="Names" color="7" fill="1" visible="yes" active="yes"/>
<layer number="96" name="Values" color="7" fill="1" visible="yes" active="yes"/>
<layer number="97" name="Info" color="7" fill="1" visible="yes" active="yes"/>
<layer number="98" name="Guide" color="6" fill="1" visible="yes" active="yes"/>
<layer number="100" name="Muster" color="7" fill="1" visible="no" active="no"/>
<layer number="101" name="Patch_Top" color="12" fill="4" visible="yes" active="yes"/>
<layer number="102" name="Vscore" color="7" fill="1" visible="yes" active="yes"/>
<layer number="103" name="tMap" color="7" fill="1" visible="yes" active="yes"/>
<layer number="104" name="Name" color="7" fill="1" visible="yes" active="yes"/>
<layer number="105" name="tPlate" color="7" fill="1" visible="yes" active="yes"/>
<layer number="106" name="bPlate" color="7" fill="1" visible="yes" active="yes"/>
<layer number="107" name="Crop" color="7" fill="1" visible="yes" active="yes"/>
<layer number="108" name="fp8" color="7" fill="1" visible="yes" active="yes"/>
<layer number="109" name="fp9" color="7" fill="1" visible="yes" active="yes"/>
<layer number="110" name="fp0" color="7" fill="1" visible="yes" active="yes"/>
<layer number="116" name="Patch_BOT" color="9" fill="4" visible="yes" active="yes"/>
<layer number="121" name="_tsilk" color="7" fill="1" visible="yes" active="yes"/>
<layer number="122" name="_bsilk" color="7" fill="1" visible="yes" active="yes"/>
<layer number="123" name="tTestmark" color="7" fill="1" visible="yes" active="yes"/>
<layer number="124" name="bTestmark" color="7" fill="1" visible="yes" active="yes"/>
<layer number="125" name="_tNames" color="7" fill="1" visible="yes" active="yes"/>
<layer number="131" name="tAdjust" color="7" fill="1" visible="yes" active="yes"/>
<layer number="132" name="bAdjust" color="7" fill="1" visible="yes" active="yes"/>
<layer number="144" name="Drill_legend" color="7" fill="1" visible="yes" active="yes"/>
<layer number="151" name="HeatSink" color="7" fill="1" visible="yes" active="yes"/>
<layer number="199" name="Contour" color="7" fill="1" visible="yes" active="yes"/>
<layer number="200" name="200bmp" color="1" fill="10" visible="no" active="no"/>
<layer number="201" name="201bmp" color="2" fill="1" visible="no" active="no"/>
<layer number="202" name="202bmp" color="3" fill="1" visible="no" active="no"/>
<layer number="203" name="203bmp" color="4" fill="10" visible="yes" active="yes"/>
<layer number="204" name="204bmp" color="5" fill="10" visible="yes" active="yes"/>
<layer number="205" name="205bmp" color="6" fill="10" visible="yes" active="yes"/>
<layer number="206" name="206bmp" color="7" fill="10" visible="yes" active="yes"/>
<layer number="207" name="207bmp" color="8" fill="10" visible="yes" active="yes"/>
<layer number="208" name="208bmp" color="9" fill="10" visible="yes" active="yes"/>
<layer number="209" name="209bmp" color="7" fill="1" visible="yes" active="yes"/>
<layer number="210" name="210bmp" color="7" fill="1" visible="yes" active="yes"/>
<layer number="211" name="211bmp" color="7" fill="1" visible="yes" active="yes"/>
<layer number="212" name="212bmp" color="7" fill="1" visible="yes" active="yes"/>
<layer number="213" name="213bmp" color="7" fill="1" visible="yes" active="yes"/>
<layer number="214" name="214bmp" color="7" fill="1" visible="yes" active="yes"/>
<layer number="215" name="215bmp" color="7" fill="1" visible="yes" active="yes"/>
<layer number="216" name="216bmp" color="7" fill="1" visible="yes" active="yes"/>
<layer number="217" name="217bmp" color="18" fill="1" visible="no" active="no"/>
<layer number="218" name="218bmp" color="19" fill="1" visible="no" active="no"/>
<layer number="219" name="219bmp" color="20" fill="1" visible="no" active="no"/>
<layer number="220" name="220bmp" color="21" fill="1" visible="no" active="no"/>
<layer number="221" name="221bmp" color="22" fill="1" visible="no" active="no"/>
<layer number="222" name="222bmp" color="23" fill="1" visible="no" active="no"/>
<layer number="223" name="223bmp" color="24" fill="1" visible="no" active="no"/>
<layer number="224" name="224bmp" color="25" fill="1" visible="no" active="no"/>
<layer number="250" name="Descript" color="3" fill="1" visible="no" active="no"/>
<layer number="251" name="SMDround" color="12" fill="11" visible="no" active="no"/>
<layer number="254" name="cooling" color="7" fill="1" visible="yes" active="yes"/>
</layers>
<schematic xreflabel="%F%N/%S.%C%R" xrefpart="/%S.%C%R">
<libraries>
<library name="TriacControl">
<packages>
<package name="DIL06">
<description>&lt;b&gt;Dual In Line Package&lt;/b&gt;</description>
<wire x1="3.81" y1="2.921" x2="-3.81" y2="2.921" width="0.1524" layer="21"/>
<wire x1="-3.81" y1="-2.921" x2="3.81" y2="-2.921" width="0.1524" layer="21"/>
<wire x1="3.81" y1="2.921" x2="3.81" y2="-2.921" width="0.1524" layer="21"/>
<wire x1="-3.81" y1="2.921" x2="-3.81" y2="1.016" width="0.1524" layer="21"/>
<wire x1="-3.81" y1="-2.921" x2="-3.81" y2="-1.016" width="0.1524" layer="21"/>
<wire x1="-3.81" y1="1.016" x2="-3.81" y2="-1.016" width="0.1524" layer="21" curve="-180"/>
<pad name="1" x="-2.54" y="-3.81" drill="0.8128" shape="offset" rot="R270"/>
<pad name="2" x="0" y="-3.81" drill="0.8128" shape="offset" rot="R270"/>
<pad name="5" x="0" y="3.81" drill="0.8128" shape="offset" rot="R90"/>
<pad name="6" x="-2.54" y="3.81" drill="0.8128" shape="offset" rot="R90"/>
<pad name="3" x="2.54" y="-3.81" drill="0.8128" shape="offset" rot="R270"/>
<pad name="4" x="2.54" y="3.81" drill="0.8128" shape="offset" rot="R90"/>
<text x="-2.413" y="-0.635" size="1.27" layer="27" ratio="10">&gt;VALUE</text>
<text x="-4.064" y="-2.921" size="1.27" layer="25" ratio="10" rot="R90">&gt;NAME</text>
</package>
</packages>
<symbols>
<symbol name="OK-B">
<wire x1="0" y1="-2.54" x2="0" y2="2.54" width="0.1524" layer="94"/>
<wire x1="0" y1="2.54" x2="5.08" y2="2.54" width="0.1524" layer="94"/>
<wire x1="0" y1="-2.54" x2="1.016" y2="-2.54" width="0.1524" layer="94"/>
<wire x1="-2.413" y1="-2.413" x2="-1.016" y2="-1.016" width="0.1524" layer="94"/>
<wire x1="-1.016" y1="-1.016" x2="-1.905" y2="-1.397" width="0.1524" layer="94"/>
<wire x1="-1.905" y1="-1.397" x2="-1.397" y2="-1.905" width="0.1524" layer="94"/>
<wire x1="-1.397" y1="-1.905" x2="-1.016" y2="-1.016" width="0.1524" layer="94"/>
<wire x1="-1.143" y1="0.127" x2="-2.032" y2="-0.254" width="0.1524" layer="94"/>
<wire x1="-2.032" y1="-0.254" x2="-1.524" y2="-0.762" width="0.1524" layer="94"/>
<wire x1="-1.524" y1="-0.762" x2="-1.143" y2="0.127" width="0.1524" layer="94"/>
<wire x1="-2.54" y1="-1.27" x2="-1.143" y2="0.127" width="0.1524" layer="94"/>
<wire x1="-3.175" y1="0" x2="-4.445" y2="-2.54" width="0.254" layer="94"/>
<wire x1="-4.445" y1="-2.54" x2="-5.715" y2="0" width="0.254" layer="94"/>
<wire x1="-3.175" y1="-2.54" x2="-4.445" y2="-2.54" width="0.254" layer="94"/>
<wire x1="-4.445" y1="-2.54" x2="-5.715" y2="-2.54" width="0.254" layer="94"/>
<wire x1="-3.175" y1="0" x2="-4.445" y2="0" width="0.254" layer="94"/>
<wire x1="-4.445" y1="0" x2="-4.445" y2="-2.54" width="0.254" layer="94"/>
<wire x1="-4.445" y1="0" x2="-5.715" y2="0" width="0.254" layer="94"/>
<wire x1="-6.985" y1="-7.62" x2="4.445" y2="-7.62" width="0.4064" layer="94"/>
<wire x1="-6.985" y1="5.08" x2="-6.985" y2="-7.62" width="0.4064" layer="94"/>
<wire x1="4.445" y1="5.08" x2="4.445" y2="-7.62" width="0.4064" layer="94"/>
<wire x1="-7.62" y1="2.54" x2="-4.445" y2="2.54" width="0.1524" layer="94"/>
<wire x1="-4.445" y1="2.54" x2="-4.445" y2="0" width="0.1524" layer="94"/>
<wire x1="-4.445" y1="-2.54" x2="-4.445" y2="-5.08" width="0.1524" layer="94"/>
<wire x1="-4.445" y1="-5.08" x2="-7.62" y2="-5.08" width="0.1524" layer="94"/>
<wire x1="-6.985" y1="5.08" x2="4.445" y2="5.08" width="0.4064" layer="94"/>
<wire x1="3.81" y1="0" x2="1.27" y2="-2.54" width="0.1524" layer="94"/>
<wire x1="1.27" y1="-2.54" x2="3.556" y2="-4.826" width="0.1524" layer="94"/>
<wire x1="3.81" y1="-5.08" x2="5.08" y2="-5.08" width="0.1524" layer="94"/>
<wire x1="3.81" y1="0" x2="5.08" y2="0" width="0.1524" layer="94"/>
<wire x1="3.048" y1="-3.556" x2="3.556" y2="-4.826" width="0.1524" layer="94"/>
<wire x1="3.556" y1="-4.826" x2="3.81" y2="-5.08" width="0.1524" layer="94"/>
<wire x1="3.556" y1="-4.826" x2="2.286" y2="-4.318" width="0.1524" layer="94"/>
<wire x1="2.286" y1="-4.318" x2="3.048" y2="-3.556" width="0.1524" layer="94"/>
<text x="-6.985" y="5.715" size="1.778" layer="95">&gt;NAME</text>
<text x="-6.985" y="-10.16" size="1.778" layer="96">&gt;VALUE</text>
<rectangle x1="0.889" y1="-5.08" x2="1.651" y2="0" layer="94"/>
<pin name="A" x="-10.16" y="2.54" visible="pad" length="short" direction="pas"/>
<pin name="C" x="-10.16" y="-5.08" visible="pad" length="short" direction="pas"/>
<pin name="BAS" x="7.62" y="2.54" visible="pad" length="short" direction="pas" rot="R180"/>
<pin name="EMI" x="7.62" y="-5.08" visible="pad" length="short" direction="pas" rot="R180"/>
<pin name="COL" x="7.62" y="0" visible="pad" length="short" direction="pas" rot="R180"/>
</symbol>
</symbols>
<devicesets>
<deviceset name="H11AA1" prefix="OK">
<description>&lt;b&gt;VISHAY ZERO CROSSING OPTOCOUPLER&lt;/b&gt;</description>
<gates>
<gate name="G$1" symbol="OK-B" x="0" y="2.54"/>
</gates>
<devices>
<device name="" package="DIL06">
<connects>
<connect gate="G$1" pin="A" pad="1"/>
<connect gate="G$1" pin="BAS" pad="6"/>
<connect gate="G$1" pin="C" pad="2"/>
<connect gate="G$1" pin="COL" pad="5"/>
<connect gate="G$1" pin="EMI" pad="4"/>
</connects>
<technologies>
<technology name="">
<attribute name="MF" value="VISHAY" constant="no"/>
<attribute name="MPN" value="H11AA1" constant="no"/>
<attribute name="OC_FARNELL" value="1612460" constant="no"/>
<attribute name="OC_NEWARK" value="" constant="no"/>
</technology>
</technologies>
</device>
</devices>
</deviceset>
</devicesets>
</library>
</libraries>
<attributes>
</attributes>
<variantdefs>
</variantdefs>
<classes>
<class number="0" name="default" width="0" drill="0">
</class>
</classes>
<parts>
<part name="OK1" library="TriacControl" deviceset="H11AA1" device=""/>
</parts>
<sheets>
<sheet>
<plain>
</plain>
<instances>
<instance part="OK1" gate="G$1" x="48.26" y="50.8"/>
</instances>
<busses>
</busses>
<nets>
</nets>
</sheet>
</sheets>
</schematic>
</drawing>
</eagle>
